id,sentiment
0,positive
1,positive
2,neutral
3,positive
4,negative
5,negative
6,neutral
7,positive
8,neutral
9,neutral
10,positive
11,positive
12,negative
13,positive
14,positive
15,negative
16,negative
17,neutral
18,neutral
19,negative
20,positive
21,negative
22,negative
23,positive
24,positive
25,negative
26,negative
27,positive
28,negative
29,negative
30,positive
31,positive
32,negative
33,negative
34,neutral
35,neutral
36,positive
37,positive
38,neutral
39,neutral
40,positive
41,neutral
42,neutral
43,positive
44,neutral
45,positive
46,neutral
47,neutral
48,positive
49,negative
50,positive
51,neutral
52,positive
53,neutral
54,positive
55,neutral
56,positive
57,neutral
58,neutral
59,neutral
60,neutral
61,neutral
62,positive
63,positive
64,positive
65,positive
66,negative
67,neutral
68,positive
69,negative
70,positive
71,positive
72,positive
73,neutral
74,neutral
75,positive
76,neutral
77,positive
78,positive
79,positive
80,neutral
81,neutral
82,positive
83,positive
84,positive
85,neutral
86,neutral
87,neutral
88,positive
89,neutral
90,positive
91,neutral
92,neutral
93,positive
94,positive
95,positive
96,neutral
97,positive
98,negative
99,neutral
100,positive
101,neutral
102,neutral
103,negative
104,neutral
105,negative
106,neutral
107,neutral
108,negative
109,neutral
110,positive
111,neutral
112,positive
113,neutral
114,positive
115,positive
116,positive
117,positive
118,neutral
119,neutral
120,neutral
121,neutral
122,neutral
123,negative
124,positive
125,negative
126,negative
127,negative
128,neutral
129,positive
130,positive
131,neutral
132,positive
133,negative
134,positive
135,positive
136,positive
137,neutral
138,neutral
139,negative
140,positive
141,neutral
142,positive
143,neutral
144,positive
145,positive
146,positive
147,positive
148,positive
149,positive
150,negative
151,positive
152,negative
153,neutral
154,neutral
155,neutral
156,neutral
157,positive
158,neutral
159,negative
160,positive
161,negative
162,positive
163,positive
164,neutral
165,neutral
166,neutral
167,neutral
168,negative
169,neutral
170,negative
171,negative
172,negative
173,positive
174,negative
175,positive
176,positive
177,positive
178,neutral
179,neutral
180,negative
181,neutral
182,neutral
183,neutral
184,positive
185,negative
186,neutral
187,positive
188,neutral
189,neutral
190,positive
191,positive
192,neutral
193,negative
194,positive
195,neutral
196,positive
197,neutral
198,positive
199,positive
200,positive
201,positive
202,positive
203,positive
204,positive
205,negative
206,positive
207,positive
208,positive
209,positive
210,neutral
211,neutral
212,positive
213,neutral
214,negative
215,neutral
216,negative
217,negative
218,positive
219,positive
220,positive
221,neutral
222,positive
223,neutral
224,negative
225,neutral
226,positive
227,negative
228,positive
229,positive
230,positive
231,neutral
232,positive
233,neutral
234,negative
235,neutral
236,positive
237,neutral
238,neutral
239,negative
240,neutral
241,positive
242,neutral
243,negative
244,negative
245,positive
246,neutral
247,neutral
248,positive
249,neutral
250,neutral
251,neutral
252,positive
253,neutral
254,positive
255,positive
256,positive
257,negative
258,positive
259,positive
260,positive
261,positive
262,negative
263,positive
264,negative
265,neutral
266,positive
267,negative
268,positive
269,negative
270,positive
271,neutral
272,neutral
273,neutral
274,positive
275,positive
276,neutral
277,neutral
278,positive
279,neutral
280,negative
281,negative
282,negative
283,positive
284,positive
285,neutral
286,positive
287,positive
288,negative
289,neutral
290,positive
291,neutral
292,neutral
293,positive
294,positive
295,neutral
296,positive
297,neutral
298,neutral
299,positive
300,neutral
301,neutral
302,negative
303,neutral
304,positive
305,positive
306,positive
307,neutral
308,positive
309,neutral
310,positive
311,positive
312,neutral
313,negative
314,neutral
315,positive
316,positive
317,negative
318,positive
319,neutral
320,neutral
321,negative
322,positive
323,neutral
324,neutral
325,negative
326,positive
327,neutral
328,positive
329,neutral
330,positive
331,neutral
332,positive
333,negative
334,negative
335,positive
336,neutral
337,neutral
338,negative
339,positive
340,positive
341,neutral
342,positive
343,positive
344,positive
345,neutral
346,negative
347,neutral
348,neutral
349,negative
350,neutral
351,positive
352,negative
353,neutral
354,negative
355,neutral
356,neutral
357,positive
358,neutral
359,neutral
360,neutral
361,positive
362,positive
363,neutral
364,neutral
365,positive
366,positive
367,neutral
368,positive
369,positive
370,negative
371,positive
372,positive
373,neutral
374,positive
375,positive
376,negative
377,neutral
378,neutral
379,neutral
380,positive
381,neutral
382,positive
383,neutral
384,neutral
385,positive
386,positive
387,neutral
388,positive
389,positive
390,neutral
391,positive
392,negative
393,positive
394,positive
395,negative
396,positive
397,positive
398,neutral
399,neutral
400,positive
401,neutral
402,positive
403,neutral
404,negative
405,negative
406,neutral
407,neutral
408,positive
409,positive
410,positive
411,positive
412,positive
413,positive
414,positive
415,positive
416,neutral
417,negative
418,negative
419,positive
420,negative
421,positive
422,neutral
423,positive
424,negative
425,positive
426,neutral
427,negative
428,neutral
429,positive
430,positive
431,positive
432,positive
433,neutral
434,neutral
435,neutral
436,negative
437,positive
438,neutral
439,neutral
440,neutral
441,positive
442,positive
443,positive
444,neutral
445,positive
446,negative
447,negative
448,negative
449,neutral
450,neutral
451,positive
452,neutral
453,neutral
454,negative
455,positive
456,negative
457,negative
458,neutral
459,neutral
460,positive
461,negative
462,negative
463,positive
464,positive
465,neutral
466,neutral
467,neutral
468,negative
469,positive
470,positive
471,negative
472,positive
473,positive
474,positive
475,positive
476,positive
477,neutral
478,positive
479,positive
480,positive
481,positive
482,neutral
483,neutral
484,positive
485,positive
486,positive
487,negative
488,positive
489,positive
490,negative
491,neutral
492,neutral
493,neutral
494,positive
495,positive
496,positive
497,neutral
498,positive
499,neutral
500,negative
501,positive
502,neutral
503,negative
504,positive
505,positive
506,positive
507,negative
508,neutral
509,neutral
510,negative
511,negative
512,positive
513,neutral
514,neutral
515,negative
516,neutral
517,neutral
518,neutral
519,positive
520,neutral
521,positive
522,positive
523,positive
524,positive
525,neutral
526,positive
527,positive
528,positive
529,positive
530,positive
531,negative
532,negative
533,neutral
534,neutral
535,neutral
536,positive
537,positive
538,negative
539,positive
540,positive
541,positive
542,positive
543,positive
544,neutral
545,negative
546,positive
547,negative
548,positive
549,positive
550,neutral
551,positive
552,positive
554,positive
555,neutral
556,positive
557,neutral
558,positive
559,neutral
560,negative
561,positive
562,positive
563,negative
564,negative
565,positive
566,negative
567,negative
568,positive
569,neutral
570,neutral
571,positive
572,positive
573,neutral
574,positive
575,positive
576,positive
577,neutral
578,positive
579,neutral
580,positive
581,positive
582,positive
583,positive
584,positive
585,positive
586,negative
587,neutral
588,positive
589,positive
590,negative
591,positive
592,negative
593,positive
594,negative
595,neutral
596,neutral
597,negative
598,negative
599,positive
600,neutral
601,positive
602,negative
603,negative
604,positive
605,neutral
606,negative
607,neutral
608,neutral
609,positive
610,neutral
611,neutral
612,neutral
613,positive
614,neutral
615,negative
616,neutral
617,positive
618,positive
619,positive
620,positive
621,neutral
622,positive
623,negative
624,neutral
625,neutral
626,neutral
627,negative
628,neutral
629,neutral
630,neutral
631,negative
632,neutral
633,neutral
634,positive
635,positive
636,positive
637,neutral
638,negative
639,neutral
640,neutral
641,neutral
642,positive
643,positive
644,neutral
645,positive
646,positive
647,positive
648,neutral
649,positive
650,positive
651,positive
652,positive
653,positive
654,positive
655,neutral
656,positive
657,positive
658,positive
659,neutral
660,positive
661,positive
662,positive
663,neutral
664,neutral
665,positive
666,neutral
667,positive
668,neutral
669,negative
670,neutral
671,negative
672,negative
673,positive
674,neutral
675,positive
676,neutral
677,positive
678,negative
679,positive
680,negative
681,positive
682,positive
683,positive
684,positive
685,neutral
686,neutral
687,neutral
688,neutral
689,positive
690,positive
691,neutral
692,neutral
693,neutral
694,neutral
695,negative
696,positive
697,positive
698,neutral
699,neutral
700,negative
701,negative
702,neutral
703,positive
704,positive
705,negative
706,positive
707,negative
708,positive
709,negative
710,neutral
711,negative
712,neutral
713,positive
714,negative
715,positive
716,positive
717,neutral
718,neutral
719,positive
720,positive
721,neutral
722,negative
723,positive
724,neutral
725,positive
726,positive
727,neutral
728,neutral
729,neutral
730,neutral
731,positive
732,negative
733,neutral
734,negative
735,negative
736,positive
737,positive
738,negative
739,positive
740,positive
741,negative
742,positive
743,neutral
744,negative
745,negative
746,neutral
747,neutral
748,positive
749,negative
750,neutral
751,positive
752,positive
753,negative
754,neutral
755,neutral
756,neutral
757,negative
758,negative
759,neutral
760,positive
761,positive
762,negative
763,positive
764,positive
765,positive
766,negative
767,positive
768,positive
769,positive
770,positive
771,positive
772,negative
773,neutral
774,positive
775,neutral
776,negative
777,positive
778,neutral
779,positive
780,neutral
781,positive
782,neutral
783,neutral
784,neutral
785,negative
786,positive
787,neutral
788,positive
789,positive
790,negative
791,positive
792,positive
793,positive
794,neutral
795,positive
796,negative
797,negative
798,negative
799,neutral
800,positive
801,negative
802,positive
803,neutral
804,positive
805,positive
806,positive
807,negative
808,neutral
809,neutral
810,negative
811,positive
812,positive
813,negative
814,positive
815,neutral
816,positive
817,positive
818,negative
819,positive
820,positive
821,neutral
822,neutral
823,neutral
824,neutral
825,neutral
826,neutral
827,neutral
828,positive
829,positive
830,neutral
831,neutral
832,neutral
833,negative
834,neutral
835,positive
836,neutral
837,positive
838,neutral
839,neutral
840,positive
841,neutral
842,neutral
843,neutral
844,negative
845,positive
846,positive
847,neutral
848,neutral
849,positive
850,positive
851,negative
852,positive
853,neutral
854,positive
855,positive
856,negative
857,positive
858,positive
859,positive
860,neutral
861,neutral
862,positive
863,neutral
864,negative
865,positive
866,positive
867,positive
868,neutral
869,positive
870,neutral
871,neutral
872,positive
873,positive
874,positive
875,positive
876,neutral
877,positive
878,positive
879,neutral
880,neutral
881,negative
882,neutral
883,neutral
884,positive
885,neutral
886,negative
887,neutral
888,negative
889,negative
890,positive
891,positive
892,neutral
893,positive
894,positive
895,negative
896,positive
897,neutral
898,positive
899,negative
900,positive
901,neutral
902,positive
903,neutral
904,negative
905,positive
906,positive
907,positive
908,positive
909,neutral
910,neutral
911,neutral
912,neutral
913,positive
914,positive
915,negative
916,neutral
917,negative
918,positive
919,neutral
920,positive
921,neutral
922,neutral
923,neutral
924,positive
925,positive
926,negative
927,neutral
928,positive
929,negative
930,negative
931,negative
932,positive
933,neutral
934,neutral
935,positive
936,neutral
937,negative
938,neutral
939,neutral
940,positive
941,negative
942,neutral
943,neutral
944,neutral
945,neutral
946,neutral
947,neutral
948,negative
949,negative
950,positive
951,neutral
952,negative
953,neutral
954,negative
955,positive
956,positive
957,neutral
958,neutral
959,positive
960,neutral
961,positive
962,negative
963,negative
964,neutral
965,positive
966,positive
967,positive
968,positive
969,negative
970,positive
971,negative
972,positive
973,neutral
974,neutral
975,negative
976,negative
977,neutral
978,positive
979,positive
980,negative
981,neutral
982,positive
983,positive
984,negative
985,positive
986,negative
987,positive
988,negative
989,positive
990,negative
991,neutral
992,positive
993,positive
994,neutral
995,positive
996,positive
997,positive
998,neutral
999,neutral
1000,neutral
1001,positive
1002,positive
1003,positive
1004,neutral
1005,positive
1006,positive
1007,negative
1008,positive
1009,positive
1010,negative
1011,neutral
1012,neutral
1013,negative
1014,neutral
1015,negative
1016,positive
1017,positive
1018,positive
1019,positive
1020,negative
1021,neutral
1022,neutral
1023,neutral
1024,positive
1025,neutral
1026,negative
1027,positive
1028,negative
1029,positive
1030,neutral
1031,neutral
1032,neutral
1033,neutral
1034,positive
1035,neutral
1036,neutral
1037,neutral
1038,positive
1039,positive
1040,positive
1041,negative
1042,neutral
1043,negative
1044,neutral
1045,positive
1046,neutral
1047,positive
1048,positive
1049,positive
1050,positive
1051,neutral
1052,negative
1053,positive
1054,positive
1055,negative
1056,positive
1057,negative
1058,neutral
1059,positive
1060,negative
1061,positive
1062,neutral
1063,positive
1064,positive
1065,positive
1066,neutral
1067,negative
1068,negative
1069,negative
1070,neutral
1071,negative
1072,positive
1073,positive
1074,neutral
1075,negative
1076,positive
1077,positive
1078,neutral
1079,positive
1080,negative
1081,positive
1082,neutral
1083,positive
1084,neutral
1085,positive
1086,positive
1087,negative
1088,positive
1089,neutral
1090,positive
1091,positive
1092,positive
1093,positive
1094,neutral
1095,positive
1096,neutral
1097,negative
1098,negative
1099,neutral
1100,negative
1101,positive
1102,positive
1103,negative
1104,negative
1105,negative
1106,negative
1107,negative
1108,negative
1109,negative
1110,neutral
1111,positive
1112,positive
1113,positive
1114,positive
1115,neutral
1116,neutral
1117,neutral
1118,positive
1119,neutral
1120,negative
1121,negative
1122,positive
1123,negative
1124,negative
1125,positive
1126,neutral
1127,negative
1128,positive
1129,neutral
1130,positive
1131,neutral
1132,neutral
1133,positive
1134,neutral
1135,positive
1136,negative
1137,positive
1138,positive
1139,negative
1140,neutral
1141,neutral
1142,negative
1143,neutral
1144,negative
1145,positive
1146,negative
1147,positive
1148,positive
1149,neutral
1150,positive
1151,neutral
1152,positive
1153,positive
1154,positive
1155,negative
1156,positive
1157,positive
1158,positive
1159,negative
1160,positive
1161,negative
1162,positive
1163,neutral
1164,negative
1165,neutral
1166,neutral
1167,positive
1168,neutral
1169,positive
1170,positive
1171,negative
1172,positive
1173,neutral
1174,negative
1175,positive
1176,neutral
1177,neutral
1178,positive
1179,positive
1180,neutral
1181,positive
1182,neutral
1183,positive
1184,neutral
1185,positive
1186,negative
1187,neutral
1188,negative
1189,negative
1190,neutral
1191,neutral
1192,positive
1193,positive
1194,positive
1195,negative
1196,positive
1197,negative
1198,negative
1199,neutral
1200,neutral
1201,neutral
1202,negative
1203,negative
1204,neutral
1205,positive
1206,negative
1207,positive
1208,positive
1209,positive
1210,negative
1211,neutral
1212,negative
1213,positive
1214,negative
1215,neutral
1216,positive
1217,neutral
1218,positive
1219,neutral
1220,neutral
1221,negative
1222,negative
1223,negative
1224,positive
1225,positive
1226,negative
1227,positive
1228,neutral
1229,negative
1230,positive
1231,neutral
1232,negative
1233,negative
1234,positive
1235,positive
1236,negative
1237,negative
1238,positive
1239,positive
1240,neutral
1241,positive
1242,neutral
1243,neutral
1244,neutral
1245,neutral
1246,positive
1247,neutral
1248,negative
1249,positive
1250,negative
1251,positive
1252,neutral
1253,positive
1254,negative
1255,neutral
1256,negative
1257,negative
1258,neutral
1259,neutral
1260,neutral
1261,neutral
1262,neutral
1263,positive
1264,neutral
1265,positive
1266,negative
1267,positive
1268,negative
1269,negative
1270,neutral
1271,neutral
1272,positive
1273,positive
1274,neutral
1275,neutral
1276,neutral
1277,negative
1278,neutral
1279,neutral
1280,positive
1281,neutral
1282,neutral
1283,neutral
1284,positive
1285,neutral
1286,negative
1287,positive
1288,neutral
1289,negative
1290,positive
1291,positive
1292,neutral
1293,neutral
1294,neutral
1295,negative
1296,positive
1297,neutral
1298,neutral
1299,positive
1300,neutral
1301,negative
1302,neutral
1303,negative
1304,positive
1305,positive
1306,negative
1307,positive
1308,neutral
1309,positive
1310,neutral
1311,negative
1312,negative
1313,positive
1314,neutral
1315,negative
1316,positive
1317,positive
1318,neutral
1319,positive
1320,negative
1321,negative
1322,positive
1323,negative
1324,positive
1325,negative
1326,positive
1327,positive
1328,neutral
1329,negative
1330,neutral
1331,neutral
1332,neutral
1333,neutral
1334,negative
1335,positive
1336,neutral
1337,positive
1338,neutral
1339,positive
1340,negative
1341,neutral
1342,negative
1343,neutral
1344,neutral
1345,positive
1346,neutral
1347,positive
1348,negative
1349,negative
1350,positive
1351,neutral
1352,positive
1353,positive
1354,positive
1355,neutral
1356,positive
1357,neutral
1358,neutral
1359,neutral
1360,neutral
1361,positive
1362,positive
1363,positive
1364,neutral
1365,positive
1366,neutral
1367,neutral
1368,positive
1369,neutral
1370,negative
1371,positive
1372,positive
1373,neutral
1374,positive
1375,positive
1376,positive
1377,positive
1378,positive
1379,neutral
1380,neutral
1381,positive
1382,neutral
1383,neutral
1384,negative
1385,negative
1386,positive
1387,positive
1388,negative
1389,neutral
1390,neutral
1391,positive
1392,neutral
1393,neutral
1394,neutral
1395,neutral
1396,negative
1397,positive
1398,neutral
1399,neutral
1400,neutral
1401,neutral
1402,negative
1403,positive
1404,positive
1405,negative
1406,neutral
1407,positive
1408,positive
1409,neutral
1410,positive
1411,negative
1412,neutral
1413,positive
1414,positive
1415,positive
1416,neutral
1417,negative
1418,positive
1419,negative
1420,positive
1421,positive
1422,positive
1423,positive
1424,positive
1425,positive
1426,neutral
1427,neutral
1428,negative
1429,negative
1430,neutral
1431,positive
1432,negative
1433,positive
1434,positive
1435,positive
1436,positive
1437,negative
1438,negative
1439,negative
1440,neutral
1441,positive
1442,negative
1443,positive
1444,positive
1445,neutral
1446,positive
1447,positive
1448,neutral
1449,neutral
1450,positive
1451,positive
1452,positive
1453,positive
1454,neutral
1455,positive
1456,positive
1457,neutral
1458,positive
1459,positive
1460,neutral
1461,negative
1462,negative
1463,neutral
1464,neutral
1465,positive
1466,positive
1467,positive
1468,positive
1469,positive
1470,positive
1471,positive
1472,positive
1473,positive
1474,positive
1475,neutral
1476,positive
1477,neutral
1478,positive
1479,positive
1480,neutral
1481,positive
1482,neutral
1483,negative
1484,neutral
1485,neutral
1486,neutral
1487,neutral
1488,negative
1489,positive
1490,positive
1491,negative
1492,negative
1493,positive
1494,positive
1495,neutral
1496,positive
1497,negative
1498,positive
1499,neutral
1500,positive
1501,negative
1502,negative
1503,neutral
1504,negative
1505,positive
1506,positive
1507,positive
1508,neutral
1509,positive
1510,positive
1511,neutral
1512,positive
1513,neutral
1514,positive
1515,negative
1516,negative
1517,neutral
1518,positive
1519,positive
1520,positive
1521,neutral
1522,positive
1523,neutral
1524,positive
1525,negative
1526,positive
1527,negative
1528,negative
1529,negative
1530,negative
1531,positive
1532,positive
1533,neutral
1534,positive
1535,positive
1536,negative
1537,neutral
1538,positive
1539,neutral
1540,neutral
1541,positive
1542,negative
1543,positive
1544,neutral
1545,neutral
1546,neutral
1547,negative
1548,neutral
1549,positive
1550,neutral
1551,neutral
1552,positive
1553,neutral
1554,positive
1555,positive
1556,neutral
1557,positive
1558,negative
1559,neutral
1560,neutral
1561,negative
1562,positive
1563,neutral
1564,neutral
1565,negative
1566,neutral
1567,negative
1568,negative
1569,negative
1570,negative
1571,positive
1572,positive
1573,neutral
1574,negative
1575,positive
1576,neutral
1577,neutral
1578,neutral
1579,neutral
1580,positive
1581,positive
1582,negative
1583,neutral
1584,positive
1585,neutral
1586,negative
1587,positive
1588,positive
1589,positive
1590,neutral
1591,positive
1592,positive
1593,neutral
1594,negative
1595,positive
1596,positive
1597,positive
1598,positive
1599,positive
1600,negative
1601,negative
1602,neutral
1603,positive
1604,neutral
1605,positive
1606,positive
1607,positive
1608,negative
1609,negative
1610,neutral
1611,negative
1612,negative
1613,positive
1614,neutral
1615,neutral
1616,positive
1617,positive
1618,negative
1619,positive
1620,neutral
1621,positive
1622,positive
1623,neutral
1624,positive
1625,positive
1626,positive
1627,positive
1628,negative
1629,neutral
1630,positive
1631,negative
1632,neutral
1633,positive
1634,neutral
1635,negative
1636,negative
1637,positive
1638,negative
1639,positive
1640,neutral
1641,neutral
1642,positive
1643,neutral
1644,neutral
1645,neutral
1646,positive
1647,positive
1648,neutral
1649,positive
1650,neutral
1651,positive
1652,negative
1653,positive
1654,neutral
1655,positive
1656,neutral
1657,neutral
1658,positive
1659,positive
1660,neutral
1661,neutral
1662,positive
1663,neutral
1664,positive
1665,negative
1666,positive
1667,positive
1668,neutral
1669,neutral
1670,neutral
1671,positive
1672,positive
1673,positive
1674,neutral
1675,positive
1676,negative
1677,neutral
1678,positive
1679,positive
1680,neutral
1681,positive
1682,negative
1683,negative
1684,negative
1685,negative
1686,neutral
1687,neutral
1688,negative
1689,positive
1690,negative
1691,negative
1692,neutral
1693,neutral
1694,negative
1695,negative
1696,negative
1697,neutral
1698,positive
1699,positive
1700,neutral
1701,neutral
1702,positive
1703,neutral
1704,positive
1705,neutral
1706,positive
1707,neutral
1708,neutral
1709,negative
1710,positive
1711,negative
1712,positive
1713,neutral
1714,neutral
1715,positive
1716,neutral
1717,neutral
1718,positive
1719,positive
1720,neutral
1721,neutral
1722,positive
1723,negative
1724,positive
1725,neutral
1726,positive
1727,positive
1728,negative
1729,neutral
1730,neutral
1731,negative
1732,neutral
1733,negative
1734,positive
1735,positive
1736,positive
1737,negative
1738,negative
1739,positive
1740,positive
1741,neutral
1742,positive
1743,negative
1744,positive
1745,positive
1746,negative
1747,neutral
1748,positive
1749,neutral
1750,positive
1751,negative
1752,positive
1753,positive
1754,positive
1755,negative
1756,positive
1757,positive
1758,neutral
1759,neutral
1760,neutral
1761,neutral
1762,neutral
1763,neutral
1764,positive
1765,negative
1766,negative
1767,positive
1768,positive
1769,positive
1770,positive
1771,negative
1772,negative
1773,neutral
1774,negative
1775,neutral
1776,positive
1777,positive
1778,positive
1779,negative
1780,positive
1781,neutral
1782,positive
1783,positive
1784,positive
1785,neutral
1786,negative
1787,positive
1788,negative
1789,neutral
1790,neutral
1791,positive
1792,positive
1793,neutral
1794,negative
1795,positive
1796,negative
1797,negative
1798,negative
1799,negative
1800,neutral
1801,positive
1802,neutral
1803,neutral
1804,positive
1805,neutral
1806,neutral
1807,neutral
1808,positive
1809,positive
1810,neutral
1811,positive
1812,positive
1813,negative
1814,neutral
1815,neutral
1816,neutral
1817,neutral
1818,negative
1819,positive
1820,neutral
1821,neutral
1822,positive
1823,negative
1824,neutral
1825,negative
1826,neutral
1827,positive
1828,positive
1829,positive
1830,neutral
1831,positive
1832,positive
1833,positive
1834,positive
1835,positive
1836,neutral
1837,negative
1838,positive
1839,positive
1840,negative
1841,positive
1842,positive
1843,negative
1844,neutral
1845,neutral
1846,positive
1847,neutral
1848,negative
1849,negative
1850,positive
1851,negative
1852,neutral
1853,neutral
1854,negative
1855,neutral
1856,positive
1857,positive
1858,negative
1859,negative
1860,positive
1861,negative
1862,positive
1863,positive
1864,positive
1865,neutral
1866,positive
1867,negative
1868,positive
1869,positive
1870,positive
1871,positive
1872,neutral
1873,positive
1874,neutral
1875,neutral
1876,negative
1877,negative
1878,neutral
1879,neutral
1880,positive
1881,neutral
1882,positive
1883,positive
1884,positive
1885,positive
1886,negative
1887,positive
1888,negative
1889,neutral
1890,positive
1891,positive
1892,positive
1893,neutral
1894,neutral
1895,positive
1896,neutral
1897,positive
1898,positive
1899,neutral
1900,positive
1901,positive
1902,neutral
1903,positive
1904,positive
1905,neutral
1906,positive
1907,positive
1908,neutral
1909,negative
1910,neutral
1911,positive
1912,positive
1913,neutral
1914,negative
1915,neutral
1916,positive
1917,neutral
1918,negative
1919,neutral
1920,positive
1921,positive
1922,neutral
1923,negative
1924,positive
1925,neutral
1926,positive
1927,neutral
1928,neutral
1929,neutral
1930,positive
1931,neutral
1932,neutral
1933,neutral
1934,positive
1935,positive
1936,negative
1937,neutral
1938,negative
1939,neutral
1940,positive
1941,positive
1942,positive
1943,positive
1944,positive
1945,negative
1946,positive
1947,neutral
1948,positive
1949,positive
1950,positive
1951,neutral
1952,positive
1953,neutral
1954,neutral
1955,positive
1956,positive
1958,positive
1959,neutral
1960,positive
1961,neutral
1962,positive
1963,positive
1964,negative
1965,positive
1966,neutral
1967,neutral
1968,neutral
1970,positive
1971,positive
1972,positive
1974,neutral
1976,positive
1977,positive
1978,positive
1979,neutral
1981,negative
1984,positive
1986,neutral
1987,neutral
1989,positive
1990,negative
1991,positive
1992,neutral
1993,neutral
1994,neutral
1995,positive
1996,positive
1997,negative
1998,positive
1999,positive
2000,neutral
2001,neutral
2002,positive
2003,positive
2004,neutral
2005,neutral
2006,positive
2007,positive
2008,positive
2009,neutral
2010,neutral
2011,neutral
2013,neutral
2014,neutral
2015,positive
2016,neutral
2017,positive
2018,negative
2019,positive
2021,positive
2022,negative
2023,neutral
2024,positive
2025,neutral
2026,positive
2027,positive
2028,positive
2029,neutral
2030,negative
2031,neutral
2033,positive
2034,positive
2035,neutral
2036,positive
2037,neutral
2038,positive
2040,neutral
2041,negative
2042,neutral
2043,negative
2044,negative
2045,positive
2047,positive
2048,positive
2049,positive
2052,negative
2057,neutral
2058,neutral
2060,positive
2061,neutral
2062,positive
2064,positive
2065,neutral
2066,neutral
2067,negative
2070,neutral
2073,neutral
2075,neutral
2076,neutral
2077,negative
2078,neutral
2079,negative
2083,neutral
2084,positive
2087,neutral
2088,positive
